\relax 
\providecommand\hyper@newdestlabel[2]{}
\providecommand\HyperFirstAtBeginDocument{\AtBeginDocument}
\HyperFirstAtBeginDocument{\ifx\hyper@anchor\@undefined
\global\let\oldcontentsline\contentsline
\gdef\contentsline#1#2#3#4{\oldcontentsline{#1}{#2}{#3}}
\global\let\oldnewlabel\newlabel
\gdef\newlabel#1#2{\newlabelxx{#1}#2}
\gdef\newlabelxx#1#2#3#4#5#6{\oldnewlabel{#1}{{#2}{#3}}}
\AtEndDocument{\ifx\hyper@anchor\@undefined
\let\contentsline\oldcontentsline
\let\newlabel\oldnewlabel
\fi}
\fi}
\global\let\hyper@last\relax 
\gdef\HyperFirstAtBeginDocument#1{#1}
\providecommand\HyField@AuxAddToFields[1]{}
\providecommand\HyField@AuxAddToCoFields[2]{}
\@writefile{toc}{\contentsline {chapter}{\numberline {1}Introdu\IeC {\c c}\IeC {\~a}o}{3}{chapter.1}}
\@writefile{lof}{\addvspace {10\p@ }}
\@writefile{lot}{\addvspace {10\p@ }}
\@writefile{toc}{\contentsline {section}{\numberline {1.1}Estrutura do Relat\IeC {\'o}rio}{3}{section.1.1}}
\citation{vm}
\@writefile{toc}{\contentsline {chapter}{\numberline {2}An\IeC {\'a}lise e Especifica\IeC {\c c}\IeC {\~a}o do problema}{4}{chapter.2}}
\@writefile{lof}{\addvspace {10\p@ }}
\@writefile{lot}{\addvspace {10\p@ }}
\newlabel{cap2}{{2}{4}{Análise e Especificação do problema}{chapter.2}{}}
\@writefile{toc}{\contentsline {section}{\numberline {2.1}Descri\IeC {\c c}\IeC {\~a}o formal do problema}{4}{section.2.1}}
\@writefile{toc}{\contentsline {subsection}{\numberline {2.1.1}Especifica\IeC {\c c}\IeC {\~a}o dos requisitos}{4}{subsection.2.1.1}}
\@writefile{toc}{\contentsline {section}{\numberline {2.2}Descri\IeC {\c c}\IeC {\~a}o da Linguagem}{5}{section.2.2}}
\@writefile{toc}{\contentsline {subsection}{\numberline {2.2.1}Defini\IeC {\c c}\IeC {\~o}es Gerais}{5}{subsection.2.2.1}}
\@writefile{toc}{\contentsline {subsection}{\numberline {2.2.2}Opera\IeC {\c c}\IeC {\~o}es e Express\IeC {\~o}es}{6}{subsection.2.2.2}}
\@writefile{toc}{\contentsline {subsection}{\numberline {2.2.3}Controlo de fluxo}{6}{subsection.2.2.3}}
\citation{enum}
\@writefile{toc}{\contentsline {section}{\numberline {2.3}Hip\IeC {\'o}teses Base}{7}{section.2.3}}
\@writefile{toc}{\contentsline {chapter}{\numberline {3}Desenho e concep\IeC {\c c}\IeC {\~a}o da solu\IeC {\c c}\IeC {\~a}o}{8}{chapter.3}}
\@writefile{lof}{\addvspace {10\p@ }}
\@writefile{lot}{\addvspace {10\p@ }}
\newlabel{cap3}{{3}{8}{Desenho e concepção da solução}{chapter.3}{}}
\@writefile{toc}{\contentsline {section}{\numberline {3.1}Arquitectura da Aplica\IeC {\c c}\IeC {\~a}o}{8}{section.3.1}}
\@writefile{toc}{\contentsline {section}{\numberline {3.2}Analisador L\IeC {\'e}xico}{8}{section.3.2}}
\@writefile{lof}{\contentsline {figure}{\numberline {3.1}{\ignorespaces Fases de compila\IeC {\c c}\IeC {\~a}o\relax }}{9}{figure.caption.2}}
\@writefile{lof}{\contentsline {figure}{\numberline {3.2}{\ignorespaces Arquitectura Pipeline\relax }}{10}{figure.caption.3}}
\@writefile{toc}{\contentsline {section}{\numberline {3.3}Gram\IeC {\'a}tica Independente do contexto - GIC}{11}{section.3.3}}
\@writefile{lol}{\contentsline {lstlisting}{gramatica.txt}{11}{lstlisting.3.-1}}
\@writefile{toc}{\contentsline {section}{\numberline {3.4}Estruturas de Dados}{12}{section.3.4}}
\@writefile{toc}{\contentsline {section}{\numberline {3.5}Detalhes da implementa\IeC {\c c}\IeC {\~a}o}{13}{section.3.5}}
\@writefile{toc}{\contentsline {subsection}{\numberline {3.5.1}Erros de tipo e variaveis n\IeC {\~a}o declaradas}{13}{subsection.3.5.1}}
\@writefile{toc}{\contentsline {subsection}{\numberline {3.5.2}Carregamento de endere\IeC {\c c}os de Arrays}{13}{subsection.3.5.2}}
\@writefile{toc}{\contentsline {subsection}{\numberline {3.5.3}Etiquetas para controlo de fluxo}{14}{subsection.3.5.3}}
\@writefile{toc}{\contentsline {chapter}{\numberline {4}Conclus\IeC {\~a}o}{15}{chapter.4}}
\@writefile{lof}{\addvspace {10\p@ }}
\@writefile{lot}{\addvspace {10\p@ }}
\bibcite{vm}{1}
\bibcite{enum}{2}
\bibcite{reg}{3}
\@writefile{toc}{\contentsline {chapter}{\numberline {A}Testes}{17}{appendix.A}}
\@writefile{lof}{\addvspace {10\p@ }}
\@writefile{lot}{\addvspace {10\p@ }}
\@writefile{toc}{\contentsline {section}{\numberline {A.1}Teste 1}{17}{section.A.1}}
\@writefile{toc}{\contentsline {subsection}{\numberline {A.1.1}teste1.lpis}{17}{subsection.A.1.1}}
\@writefile{lol}{\contentsline {lstlisting}{teste1.lpis}{17}{lstlisting.A.-2}}
\@writefile{toc}{\contentsline {subsection}{\numberline {A.1.2}out1.vm}{17}{subsection.A.1.2}}
\@writefile{lol}{\contentsline {lstlisting}{out1.vm}{17}{lstlisting.A.-3}}
\@writefile{toc}{\contentsline {section}{\numberline {A.2}Teste 2}{18}{section.A.2}}
\@writefile{toc}{\contentsline {subsection}{\numberline {A.2.1}teste2.lpis}{18}{subsection.A.2.1}}
\@writefile{lol}{\contentsline {lstlisting}{teste2.lpis}{18}{lstlisting.A.-4}}
\@writefile{toc}{\contentsline {subsection}{\numberline {A.2.2}out2.vm}{19}{subsection.A.2.2}}
\@writefile{lol}{\contentsline {lstlisting}{out2.vm}{19}{lstlisting.A.-5}}
\@writefile{toc}{\contentsline {section}{\numberline {A.3}Teste 3}{20}{section.A.3}}
\@writefile{toc}{\contentsline {subsection}{\numberline {A.3.1}teste3.lpis}{20}{subsection.A.3.1}}
\@writefile{lol}{\contentsline {lstlisting}{teste3.lpis}{20}{lstlisting.A.-6}}
\@writefile{toc}{\contentsline {subsection}{\numberline {A.3.2}out3.vm}{20}{subsection.A.3.2}}
\@writefile{lol}{\contentsline {lstlisting}{out3.vm}{20}{lstlisting.A.-7}}
\@writefile{toc}{\contentsline {section}{\numberline {A.4}Teste 4}{22}{section.A.4}}
\@writefile{toc}{\contentsline {subsection}{\numberline {A.4.1}teste4.lpis}{22}{subsection.A.4.1}}
\@writefile{lol}{\contentsline {lstlisting}{teste4.lpis}{22}{lstlisting.A.-8}}
\@writefile{toc}{\contentsline {subsection}{\numberline {A.4.2}out4.vm}{23}{subsection.A.4.2}}
\@writefile{lol}{\contentsline {lstlisting}{out4.vm}{23}{lstlisting.A.-9}}
\@writefile{toc}{\contentsline {chapter}{\numberline {B}Analisador L\IeC {\'e}xico}{27}{appendix.B}}
\@writefile{lof}{\addvspace {10\p@ }}
\@writefile{lot}{\addvspace {10\p@ }}
\@writefile{lol}{\contentsline {lstlisting}{lpis.l}{27}{lstlisting.B.-10}}
\@writefile{toc}{\contentsline {chapter}{\numberline {C}Analisador Sint\IeC {\'a}ctico e Sem\IeC {\^a}ntico}{29}{appendix.C}}
\@writefile{lof}{\addvspace {10\p@ }}
\@writefile{lot}{\addvspace {10\p@ }}
\@writefile{lol}{\contentsline {lstlisting}{lpis.y}{29}{lstlisting.C.-11}}
\@writefile{toc}{\contentsline {chapter}{\numberline {D}C\IeC {\'o}digo C}{34}{appendix.D}}
\@writefile{lof}{\addvspace {10\p@ }}
\@writefile{lot}{\addvspace {10\p@ }}
\@writefile{lol}{\contentsline {lstlisting}{codigoC.c}{34}{lstlisting.D.-12}}
\@writefile{toc}{\contentsline {chapter}{\numberline {E}Stack}{41}{appendix.E}}
\@writefile{lof}{\addvspace {10\p@ }}
\@writefile{lot}{\addvspace {10\p@ }}
\@writefile{lol}{\contentsline {lstlisting}{stack.c}{41}{lstlisting.E.-13}}
\@writefile{toc}{\contentsline {chapter}{\numberline {F}Makefile}{42}{appendix.F}}
\@writefile{lof}{\addvspace {10\p@ }}
\@writefile{lot}{\addvspace {10\p@ }}
\@writefile{lol}{\contentsline {lstlisting}{makefile}{42}{lstlisting.F.-14}}
\newlabel{LastPage}{{}{42}{}{page.42}{}}
\xdef\lastpage@lastpage{42}
\xdef\lastpage@lastpageHy{42}
